Making graphics for the paper and supplementary information
…
dfs <- list(m_df, ret_df, sex_df, inc_df, edu_df, pol_df, con_df)
all_estimates <- reduce(dfs, bind_rows)
with(all_estimates, table(treatment_grouped))

## treatment_grouped
##         Average Confirmed cases       Education          Gender          Income 
##               3               6               6               6               6 
##       Political  Retirement age 
##               6               6

all_estimates_levels <- c("Average", "Political", "Income","Education", "Gender","Retirement age","Confirmed cases") 
all_estimates <- all_estimates %>% mutate(treatment_grouped = factor(treatment_grouped, levels=all_estimates_levels))
all_estimates

## # A tibble: 39 x 5
##    outcome     treatment_grouped within_group_typed estimate     se
##    <chr>       <fct>             <chr>                 <dbl>  <dbl>
##  1 solidarity  Average           ""                  0.0645  0.0252
##  2 luck_unfair Average           ""                 -0.0835  0.0255
##  3 nationalism Average           ""                  0.00579 0.0244
##  4 solidarity  Retirement age    "below"             0.0475  0.0283
##  5 solidarity  Retirement age    "reached"           0.144   0.0542
##  6 luck_unfair Retirement age    "below"            -0.0776  0.0286
##  7 luck_unfair Retirement age    "reached"          -0.111   0.0554
##  8 nationalism Retirement age    "below"             0.0226  0.0277
##  9 nationalism Retirement age    "reached"          -0.0727  0.0488
## 10 solidarity  Gender            "male"              0.0634  0.0369
## # … with 29 more rows
…
